{
    "ADD_TRANSACTION_CREDIT": {
        "code": " INSERT INTO `AmazieFintechP1`.`transactionTopUp` ( `idTransactionCard` , `idUser` , `name` , `amount` , `net` , `fee` , `fee_vat` , `last_digits` , `financing` , `brand` , `bank` , `status` , `detail` , `datePaid`, `dateTime` , `depositBy` , `type`, `statusPaid` ) VALUES ( ?, ? , ? , ? , ? , ? , ? , ? , ? , ? , ? , ? , ? , ? , ? , ? , ? , ? ) ; "
     },
     "UPDATE_TRANSACTION_INTERNET_BANK": {
        "code": "UPDATE  `AmazieFintechP1`.`transactionTopUp` SET `idTransactionCard`=? , `name` =? , `amount`=? , `net`=? , `fee`=? , `fee_vat`=?, `last_digits`=?, `financing`=? , `brand`= ? , `bank`=? , `status` =? , `detail`=? , `datePaid`=?, `dateTime`=? , `depositBy`=? , `type`=?, `statusPaid`=?  WHERE idTransactionCard = ? ;"
     },
     "SEND_SLIP":{
         "code": " INSERT INTO `AmazieFintechP1`.`transactionTopUp` ( `idTransactionCard` , `idUser` , `name` , `amount` , `net` , `fee` , `fee_vat` , `last_digits` , `financing` , `brand` , `bank` , `status` , `detail` , `datePaid`, `dateTime` , `depositBy` , `type`, `statusPaid`, `slip` ) VALUES ( ?, ?, ? , ? , ? , ? , ? , ? , ? , ? , ? , ? , ? , ? , ? , ? , ? , ? , ? ) ; "
     },
     "WITHDRAW" : {
         "code":"INSERT INTO `AmazieFintechP1`.`transactionWithdraw` (`idUser`,`amount`,`BankName`,`AccountName`,`AccountNumber`,`SwiftCode`,`DateWithDraw`) VALUES (? ,? ,? ,? ,? ,? ,?) ; "
     }
}